…
<img src="p8105_hw3_bg2604_files/figure-markdown_github/p1.4-1.png" width="90%" /> Answer: Five-panel plot were created for earch response in each state across years. A similar trend was observed for each state for each response type from 2002 to 2010.

### Problem 2

#### Write a short description of the dataset, noting the size and structure of the data, describing some key variables, and giving illstrative examples of observations.

``` r
instacart
```

    ## # A tibble: 1,384,617 x 15
    ##    order_id product_id add_to_cart_ord~ reordered user_id eval_set
    ##       <int>      <int>            <int>     <int>   <int> <chr>   
    ##  1        1      49302                1         1  112108 train   
    ##  2        1      11109                2         1  112108 train   
    ##  3        1      10246                3         0  112108 train   
    ##  4        1      49683                4         0  112108 train   
    ##  5        1      43633                5         1  112108 train   
    ##  6        1      13176                6         0  112108 train   
    ##  7        1      47209                7         0  112108 train   
    ##  8        1      22035                8         1  112108 train   
    ##  9       36      39612                1         0   79431 train   
    ## 10       36      19660                2         1   79431 train   
    ## # ... with 1,384,607 more rows, and 9 more variables: order_number <int>,
    ## #   order_dow <int>, order_hour_of_day <int>,
    ## #   days_since_prior_order <int>, product_name <chr>, aisle_id <int>,
    ## #   department_id <int>, aisle <chr>, department <chr>
…
    ## [1] 39123

Answer: This is a 1384617\*15 dataset without missing data. There are 131209 orders, 131209 users and 39123 products. The variables include information (id and name) of departments, aisles and products, and order information (eg. order id, number of order, order day).

#### Problem 2.1 How many aisles are there, and which aisles are the most items ordered from?

``` r
instacart %>% 
  group_by(aisle) %>% 
  summarize(n_item = n()) %>% 
  arrange(desc(n_item))
```

    ## # A tibble: 134 x 2
    ##    aisle                         n_item
    ##    <chr>                          <int>
    ##  1 fresh vegetables              150609
    ##  2 fresh fruits                  150473
    ##  3 packaged vegetables fruits     78493
    ##  4 yogurt                         55240
    ##  5 packaged cheese                41699
    ##  6 water seltzer sparkling water  36617
    ##  7 milk                           32644
    ##  8 chips pretzels                 31269
    ##  9 soy lactosefree                26240
    ## 10 bread                          23635
    ## # ... with 124 more rows
…
### Problem 3

#### Write a short description of the dataset, noting the size and structure of the data, describing some key variables, and indicating the extent to which missing data is an issue

``` r
ny_noaa %>% 
  group_by(id) %>% 
  summarize(prcp_na = sum(is.na(prcp)),
            snow_na = sum(is.na(snow)),
            snwd_na = sum(is.na(snwd)),
            tmax_na = sum(is.na(tmax)),
            tmin_na = sum(is.na(tmin)))
```

    ## # A tibble: 747 x 6
    ##    id          prcp_na snow_na snwd_na tmax_na tmin_na
    ##    <chr>         <int>   <int>   <int>   <int>   <int>
    ##  1 US1NYAB0001      60     252     874    1157    1157
    ##  2 US1NYAB0006      19     283     703     852     852
    ##  3 US1NYAB0010     220     352     816     822     822
    ##  4 US1NYAB0016      98     152     212     214     214
    ##  5 US1NYAB0017     301     415     459     459     459
    ##  6 US1NYAB0021       2      37      72     365     365
    ##  7 US1NYAB0022     233     238     239     273     273
    ##  8 US1NYAB0023     144     238     289     365     365
    ##  9 US1NYAB0025      40      43      43     215     215
    ## 10 US1NYAL0002      57     245     409     549     549
    ## # ... with 737 more rows

Answer: This is a 2595176\*7 dataset. The variables include NY weather station id, the date of observation, precipitation (mm), snowfall (mm), snow depth (mm), and the maximum and minimum temperatures (tenths of degrees C). Missing data could be a big problem becasue a large proportion of data is missing.

#### Problem 3.1 Do some data cleaning. Create separate variables for year, month, and day. Ensure observations for temperature, precipitation, and snowfall are given in reasonable units. For snowfall, what are the most commonly observed values? Why?

``` r
ny_noaa_3.1 <- ny_noaa %>% 
  separate(date, into = c("year", "month", "day"), sep = "-") %>% 
  mutate(prcp = prcp / 10,
         tmax = as.numeric(tmax) / 10,
         tmin = as.numeric(tmin) / 10)
  count(ny_noaa, snow) %>% arrange(desc(n))
```

    ## # A tibble: 282 x 2
    ##     snow       n
    ##    <int>   <int>
    ##  1     0 2008508
    ##  2    NA  381221
    ##  3    25   31022
    ##  4    13   23095
    ##  5    51   18274
    ##  6    76   10173
    ##  7     8    9962
    ##  8     5    9748
    ##  9    38    9197
    ## 10     3    8790
    ## # ... with 272 more rows
…
